{
    "gist": {
        "id": 2,
        "sass": "@mixin side-by-side {\n  width: 49.5%;\n  margin-bottom: 1em;\n  &:only-of-type {\n    width: 100%;\n  }\n  &:nth-of-type(even), &:only-of-type {\n    margin-left: 1%;\n  }\n} \n\nhtml {\n  box-sizing: border-box;\n}\n\n*, *:before, *:after {\n  box-sizing: inherit;\n}\n\nbody {\n  font: 18px / 1.5 'Helvetica Neue', Arial, Helvetica, sans-serif;\n  color: #444;\n  margin: 0 0.5em 1.5em;\n  padding-top: 1em;\n  max-width: 960px;\n  @media screen and (min-width: 480px) {\n    margin: 0 auto 1.5em;\n  }\n}\n\np, pre, fieldset, label, input, textarea, button {\n  margin: 0;\n  padding: 0;\n  border: 0;\n}\n\np {\n  margin-bottom: 1em;\n}\n\na {\n  color: #178db1;\n}\n\nfieldset {\n  overflow: hidden;\n  zoom: 1;\n}\n\nlabel, textarea, input, pre {\n  display: block;\n  float: left;\n}\n\nlabel {\n  width: 10%;\n  min-width: 4em;\n  padding-right: 1.5em;\n  margin-bottom: 1em;\n  clear: both;\n}\n\ninput, textarea, button, pre {\n  font-family: 'Source Code Pro', 'Menlo', fixed;\n  font-size: 80%;\n  line-height: 1.5;\n  border: 1px solid #999;\n  color: #555;\n  padding: 0.25em 0.5em;\n  border-radius: .2em;\n}\n\ntextarea, input {\n  width: 100%;\n  margin-bottom: 1.5em;\n\n  @media screen and (min-width: 480px) {\n    @include side-by-side;\n\n    min-width: 8em;\n  }\n}\n\ninput, textarea {\n  transition: all 0.20s ease-in-out;\n  outline: none;\n  margin-top: 1px;\n\n  &:focus {\n    box-shadow: 0 0 3px transparentize(#AF51D3, 0.01); //rgba(81, 203, 238, 1);\n    border: 1px solid transparentize(#AF51D3, 0.3); //rgba(81, 203, 238, 1);\n  }\n}\n\nselect {\n  font-size: 100%;\n  float: left;\n  clear: left;\n  margin: 0 1.5em 1.5em 0;\n}\n\nbutton {\n  font-family: inherit;\n  font-size: inherit;\n  background: #efefef;\n  padding: 0 0.5em;\n  line-height: 1.5;\n  float: left;\n}\n\n.left, .right {\n  @media screen and (min-width: 480px) {\n    @include side-by-side;\n\n    float: left;\n  }\n}\n\npre {\n  margin-top: 1px;\n}\n\npre, textarea {\n  min-height: 20em;\n  width: 100%;\n  clear: both;\n}",
        "outputStyle": "nested",
        "css": "html {\n  box-sizing: border-box; }\n\n*, *:before, *:after {\n  box-sizing: inherit; }\n\nbody {\n  font: 18px/1.5 'Helvetica Neue', Arial, Helvetica, sans-serif;\n  color: #444;\n  margin: 0 0.5em 1.5em;\n  padding-top: 1em;\n  max-width: 960px; }\n  @media screen and (min-width: 480px) {\n    body {\n      margin: 0 auto 1.5em; } }\n\np, pre, fieldset, label, input, textarea, button {\n  margin: 0;\n  padding: 0;\n  border: 0; }\n\np {\n  margin-bottom: 1em; }\n\na {\n  color: #178db1; }\n\nfieldset {\n  overflow: hidden;\n  zoom: 1; }\n\nlabel, textarea, input, pre {\n  display: block;\n  float: left; }\n\nlabel {\n  width: 10%;\n  min-width: 4em;\n  padding-right: 1.5em;\n  margin-bottom: 1em;\n  clear: both; }\n\ninput, textarea, button, pre {\n  font-family: 'Source Code Pro', 'Menlo', fixed;\n  font-size: 80%;\n  line-height: 1.5;\n  border: 1px solid #999;\n  color: #555;\n  padding: 0.25em 0.5em;\n  border-radius: 0.2em; }\n\ntextarea, input {\n  width: 100%;\n  margin-bottom: 1.5em; }\n  @media screen and (min-width: 480px) {\n    textarea, input {\n      width: 49.5%;\n      margin-bottom: 1em;\n      min-width: 8em; }\n      textarea:only-of-type, input:only-of-type {\n        width: 100%; }\n      textarea:nth-of-type(even), textarea:only-of-type, input:nth-of-type(even), input:only-of-type {\n        margin-left: 1%; } }\n\ninput, textarea {\n  transition: all 0.2s ease-in-out;\n  outline: none;\n  margin-top: 1px; }\n  input:focus, textarea:focus {\n    box-shadow: 0 0 3px rgba(175, 81, 211, 0.99);\n    border: 1px solid rgba(175, 81, 211, 0.7); }\n\nselect {\n  font-size: 100%;\n  float: left;\n  clear: left;\n  margin: 0 1.5em 1.5em 0; }\n\nbutton {\n  font-family: inherit;\n  font-size: inherit;\n  background: #efefef;\n  padding: 0 0.5em;\n  line-height: 1.5;\n  float: left; }\n\n@media screen and (min-width: 480px) {\n  .left, .right {\n    width: 49.5%;\n    margin-bottom: 1em;\n    float: left; }\n    .left:only-of-type, .right:only-of-type {\n      width: 100%; }\n    .left:nth-of-type(even), .left:only-of-type, .right:nth-of-type(even), .right:only-of-type {\n      margin-left: 1%; } }\n\npre {\n  margin-top: 1px; }\n\npre, textarea {\n  min-height: 20em;\n  width: 100%;\n  clear: both; }\n"
    }
}

